<svg xmlns="http://www.w3.org/2000/svg" width="27" height="27" viewBox="0 0 27 27">
    <path fill="#FFF" fill-rule="evenodd" d="M10.292.35C5.276.35 1.042 4.061.443 8.983c-.35 2.875.464 5.651 2.295 7.821 1.807 2.145 4.402 3.376 7.116 3.376h3.032l.257.24 6.13 6.03-.054-6.541c4.688-1.155 7.808-5.793 7.265-10.788C25.95 4.203 21.628.35 16.644.35h-6.352z"/>
</svg>
